[
  "percentagearmorreduction",
  "cdr",
  "utility",
  "percentmovementspeed",
  "aspd",
  "critchance",
  "lifesteal",
  "basempregen",
  "baseregen",
  "spellvamp",
  "omnivamp",
  "meleechampion",
  "rangedchampion",
  "ap_amplification",
  "critblock",
  "percentbonushp",
  "percentagemagicpen",
  "manarefundamount",
  "healshieldproficiency"
]